<?xml version="1.0" encoding="UTF-8" standalone="no"?>
<svg
   xmlns:dc="http://purl.org/dc/elements/1.1/"
   xmlns:cc="http://creativecommons.org/ns#"
   xmlns:rdf="http://www.w3.org/1999/02/22-rdf-syntax-ns#"
   xmlns:svg="http://www.w3.org/2000/svg"
   xmlns="http://www.w3.org/2000/svg"
   version="1.1"
   id="svg2"
   viewBox="0 0 35.433069 35.433075"
   height="10mm"
   width="10mm">
  <defs
     id="defs4" />
  <metadata
     id="metadata7">
    <rdf:RDF>
      <cc:Work
         rdf:about="">
        <dc:format>image/svg+xml</dc:format>
        <dc:type
           rdf:resource="http://purl.org/dc/dcmitype/StillImage" />
        <dc:title></dc:title>
      </cc:Work>
    </rdf:RDF>
  </metadata>
  <g
     style="display:none"
     transform="translate(0,-1016.9291)"
     id="layer1">
    <flowRoot
       style="font-style:normal;font-weight:normal;font-size:40px;line-height:125%;font-family:sans-serif;letter-spacing:0px;word-spacing:0px;fill:#000000;fill-opacity:1;stroke:none;stroke-width:1px;stroke-linecap:butt;stroke-linejoin:miter;stroke-opacity:1"
       id="flowRoot4136"
       xml:space="preserve"><flowRegion
         id="flowRegion4138"><rect
           y="55.341644"
           x="62.629459"
           height="98.994949"
           width="229.30463"
           id="rect4140" /></flowRegion><flowPara
         style="font-style:normal;font-variant:normal;font-weight:normal;font-stretch:normal;font-family:Arizonia;-inkscape-font-specification:Arizonia"
         id="flowPara4142" /></flowRoot>    <text
       id="text4144"
       y="1046.4198"
       x="4.2603331"
       style="font-style:normal;font-weight:normal;font-size:40px;line-height:125%;font-family:sans-serif;letter-spacing:0px;word-spacing:0px;fill:#00bbff;fill-opacity:1;stroke:none;stroke-width:1px;stroke-linecap:butt;stroke-linejoin:miter;stroke-opacity:1"
       xml:space="preserve"><tspan
         style="font-style:normal;font-variant:normal;font-weight:normal;font-stretch:normal;font-family:Arizonia;-inkscape-font-specification:Arizonia;fill:#00bbff;fill-opacity:1"
         y="1046.4198"
         x="4.2603331"
         id="tspan4146">R </tspan></text>
  </g>
  <g
     id="g4149"
     transform="translate(0,-1016.9291)"
     style="display:inline">
    <flowRoot
       xml:space="preserve"
       id="flowRoot4151"
       style="font-style:normal;font-weight:normal;font-size:40px;line-height:125%;font-family:sans-serif;letter-spacing:0px;word-spacing:0px;fill:#000000;fill-opacity:1;stroke:none;stroke-width:1px;stroke-linecap:butt;stroke-linejoin:miter;stroke-opacity:1"><flowRegion
         id="flowRegion4153"><rect
           id="rect4155"
           width="229.30463"
           height="98.994949"
           x="62.629459"
           y="55.341644" /></flowRegion><flowPara
         id="flowPara4157"
         style="font-style:normal;font-variant:normal;font-weight:normal;font-stretch:normal;font-family:Arizonia;-inkscape-font-specification:Arizonia" /></flowRoot>    <g
       transform="translate(-0.37880724,0)"
       id="text4159"
       style="font-style:normal;font-weight:normal;font-size:40px;line-height:125%;font-family:sans-serif;letter-spacing:0px;word-spacing:0px;fill:#00bbff;fill-opacity:1;stroke:none;stroke-width:1px;stroke-linecap:butt;stroke-linejoin:miter;stroke-opacity:1">
      <path
         id="path4164"
         style="font-style:normal;font-variant:normal;font-weight:normal;font-stretch:normal;font-family:Arizonia;-inkscape-font-specification:Arizonia;fill:#00bbff;fill-opacity:1"
         d="m 4.0791397,1047.8998 q 0,-1.92 5.76,-10.32 -0.2,-0.72 -0.2,-1.32 0,-0.6 1.0000003,-1.4 1,-0.8 1.52,-0.8 0.08,0 0.12,0 2.36,-3.24 4.2,-5.48 1.84,-2.24 2.16,-2.24 0.32,0 0.48,0.28 0.2,0.24 0.2,0.52 -3.2,3.96 -6.56,8.56 l 0.08,0.28 1.44,-0.12 q 3.04,-0.2 6.6,-1.36 3.56,-1.2 5.84,-2.72 4.72,-3.2 4.72,-5.88 0,-1.16 -1.56,-1.96 -1.56,-0.8 -4.88,-0.8 -3.32,0 -9.04,1.64 -5.68,1.6 -7.9200003,3.52 -0.64,0.56 -0.48,0.88 0.2,0.32 0.08,0.36 -0.12,0.04 -0.36,-0.12 -0.84,-0.48 -1.08,-1.2 -0.2,-0.72 -0.2,-1.08 0,-0.36 0.2,-0.52 1.32,-1.92 5.8800003,-3.6 4.6,-1.72 8.48,-2.24 3.88,-0.56 5.72,-0.56 1.88,0 3.08,0.24 1.24,0.24 2.2,1.08 1.48,1.24 1.48,3.48 0,2.2 -1.64,4.08 -1.64,1.88 -4.24,3.4 -2.56,1.48 -6.24,2.68 -4.28,1.4 -7.88,1.4 1.28,3.2 5.12,6.48 3.88,3.24 6.4,3.24 1,0 1.76,-0.48 0.76,-0.48 0.88,-1.2 0,-0.2 0.2,-0.12 0.08,0.12 0.08,0.2 -0.32,2.68 -4.56,2.68 -2.44,0 -5.08,-1.28 -2.64,-1.28 -4.52,-3.2 -1.84,-1.92 -2.92,-3.96 -4.2400003,6.16 -5.2400003,8.68 -0.24,0.64 -0.64,0.64 -0.44,0 -0.44,-0.36 z" />
    </g>
  </g>
</svg>
